FinalProject
…
## Parsed with column specification:
## cols(
##   .default = col_integer(),
##   X = col_character(),
##   Team = col_character(),
##   FGP = col_double(),
##   TPP = col_double(),
##   FTP = col_double()
## )

## See spec(...) for full column specifications.

champ_tab

## # A tibble: 216 x 25
##    X      Year Team   Game   Win  Home    MP    FG   FGA   FGP    TP   TPA
##    <chr> <int> <chr> <int> <int> <int> <int> <int> <int> <dbl> <int> <int>
##  1 1      1980 Lake~     1     1     1   240    48    89 0.539     0     0
##  2 2      1980 Lake~     2     0     1   240    48    95 0.505     0     1
##  3 3      1980 Lake~     3     1     0   240    44    92 0.478     0     1
##  4 4      1980 Lake~     4     0     0   240    44    93 0.473     0     0
##  5 5      1980 Lake~     5     1     1   240    41    91 0.451     0     0
##  6 6      1980 Lake~     6     1     0   240    45    92 0.489     0     2
##  7 7      1981 Celt~     1     1     1   240    41    95 0.432     0     1
##  8 8      1981 Celt~     2     0     1   240    41    82 0.500     0     3
##  9 9      1981 Celt~     3     1     0   240    40    89 0.449     2     3
## 10 10     1981 Celt~     4     0     0   240    35    74 0.473     0     3
## # ... with 206 more rows, and 13 more variables: TPP <dbl>, FT <int>,
## #   FTA <int>, FTP <dbl>, ORB <int>, DRB <int>, TRB <int>, AST <int>,
## #   STL <int>, BLK <int>, TOV <int>, PF <int>, PTS <int>

For this dataset, we have game stats on every game played in the NBA finals since 1980, but only the winning team. We must tidy the data.

champions <-champ_tab %>% group_by(Year,Team) %>%
      summarise(avg_fg= mean(FGP),avg_fta= mean(FTA), avg_ftp= mean(FTP), wins= sum(Win),            avg_reb= mean(TRB), avg_assists= mean(AST), avg_steals= mean(STL), avg_blocks= mean(BLK), avg_pts= mean(PTS)) %>% mutate(Champs=ifelse(wins ==4, 1,0)) %>% filter(wins ==4)
champions 

## # A tibble: 38 x 12
## # Groups:   Year [38]
##     Year Team  avg_fg avg_fta avg_ftp  wins avg_reb avg_assists avg_steals
##    <int> <chr>  <dbl>   <dbl>   <dbl> <int>   <dbl>       <dbl>      <dbl>
##  1  1980 Lake~  0.489    24.0   0.795     4    51.3        26.7       9.17
##  2  1981 Celt~  0.474    21.5   0.720     4    47.3        22.8       6.67
##  3  1982 Lake~  0.495    31.5   0.669     4    47.3        31.3      10.7 
##  4  1983 Sixe~  0.487    34.5   0.709     4    48.0        26.0      11.0 
##  5  1984 Celt~  0.454    38.6   0.797     4    47.4        24.1       9.86
##  6  1985 Lake~  0.512    29.7   0.733     4    42.7        32.0       9.17
##  7  1986 Celt~  0.494    23.0   0.809     4    45.2        28.0       9.83
##  8  1987 Lake~  0.514    25.8   0.747     4    40.3        26.7       8.00
##  9  1988 Lake~  0.468    35.3   0.749     4    37.6        23.7       5.86
## 10  1989 Pist~  0.525    31.2   0.799     4    40.0        24.2       4.00
## # ... with 28 more rows, and 3 more variables: avg_blocks <dbl>,
## #   avg_pts <dbl>, Champs <dbl>

The package being utilized here is dplyr which allows us to run our dataset through a pipeline of functions using(%>%). 1. We group the data by Year and team using group_by() 2. We summarise the data, creating new attributs(avg_reb,avg_assists,etc). 3. I had to do a bit of Tidying for this dataset. 2 of the years were duplicated and I noticed that the Team names were spelled incorrectly. I also noticed the amount of wins is 0 for these incorrect years.So i called a filter funtion that removes any entity that doesnt have 4 wins(which is how much wins a championship team has)

runnerups <- read.csv("runnerupsdata.csv")
runner_ups <- runnerups %>% group_by(Year,Team) %>%
      summarise(avg_fg= mean(FGP),avg_fta= mean(FTA), avg_ftp= mean(FTP),
      wins=sum(Win),avg_reb= mean(TRB), avg_assists= mean(AST), avg_steals= mean(STL),               avg_blocks=mean(BLK),avg_pts= mean(PTS)) %>% mutate(Champs=ifelse(wins ==4, 1,0))

runner_ups

## # A tibble: 38 x 12
## # Groups:   Year [38]
##     Year Team  avg_fg avg_fta avg_ftp  wins avg_reb avg_assists avg_steals
##    <int> <fct>  <dbl>   <dbl>   <dbl> <int>   <dbl>       <dbl>      <dbl>
##  1  1980 Sixe~  0.488    24.0   0.737     2    37.2        31.0       9.33
##  2  1981 Rock~  0.377    25.8   0.729     2    42.7        18.0       7.83
##  3  1982 Sixe~  0.498    27.8   0.694     2    41.7        28.7       8.83
##  4  1983 Lake~  0.451    23.2   0.744     0    42.8        24.5       9.00
##  5  1984 Lake~  0.516    32.9   0.706     2    43.7        28.3       8.43
##  6  1985 Celt~  0.474    30.3   0.764     2    43.2        30.8       8.67
##  7  1986 Rock~  0.450    24.7   0.701     2    45.5        27.5       9.00
##  8  1987 Celt~  0.505    27.0   0.790     2    41.3        27.8       5.00
##  9  1988 Pist~  0.479    29.7   0.776     3    43.6        23.3       6.86
## 10  1989 Lake~  0.465    36.0   0.752     0    36.2        23.0       5.50
## # ... with 28 more rows, and 3 more variables: avg_blocks <dbl>,
## #   avg_pts <dbl>, Champs <dbl>
…
## Parsed with column specification:
## cols(
##   Team = col_character(),
##   Season_Start = col_integer(),
##   Season_End = col_integer(),
##   Rk = col_integer(),
##   Player = col_character(),
##   Salary = col_integer()
## )

salaries$Team <- gsub("^(\\w+)(\\w+)?\\s(\\w+)$","\\3",salaries$Team)
salaries$Year <- salaries$Season_Start
salaries

## # A tibble: 11,549 x 7
##    Team  Season_Start Season_End    Rk Player             Salary  Year
##    <chr>        <int>      <int> <int> <chr>               <int> <int>
##  1 Hawks         1990       1991     1 Moses Malone      2406000  1990
##  2 Hawks         1990       1991     2 Dominique Wilkins 2065000  1990
##  3 Hawks         1990       1991     3 Jon Koncak        1550000  1990
##  4 Hawks         1990       1991     4 Doc Rivers         895000  1990
##  5 Hawks         1990       1991     5 Rumeal Robinson    800000  1990
##  6 Hawks         1990       1991     6 Tim McCormick      775000  1990
##  7 Hawks         1990       1991     7 Kevin Willis       685000  1990
##  8 Hawks         1990       1991     8 Alexander Volkov   650000  1990
##  9 Hawks         1990       1991     9 John Battle        590000  1990
## 10 Hawks         1990       1991    10 Sidney Moncrief    510000  1990
## # ... with 11,539 more rows
…
